bkg
…
train <- train %>% 
  arrange(utrip_id,checkin) %>% 
  group_by(utrip_id) %>% 
  mutate(city_step=row_number()) %>% 
  ungroup()

test <- test %>% 
  arrange(utrip_id,checkin) %>% 
  group_by(utrip_id) %>% 
  mutate(city_step=row_number()) %>% 
  ungroup()

train

## # A tibble: 1,166,835 x 15
##         X1 user_id checkin    checkout   city_id device_class affiliate_id
##      <dbl> <chr>   <date>     <date>     <chr>   <chr>        <chr>       
##  1  542546 1000027 2016-08-13 2016-08-14 8183    desktop      7168        
##  2  542547 1000027 2016-08-14 2016-08-16 15626   desktop      7168        
##  3  542548 1000027 2016-08-16 2016-08-18 60902   desktop      7168        
##  4  542549 1000027 2016-08-18 2016-08-21 30628   desktop      253         
##  5 1061281 1000033 2016-04-09 2016-04-11 38677   mobile       359         
##  6 1061282 1000033 2016-04-11 2016-04-12 52089   desktop      384         
##  7 1061283 1000033 2016-04-12 2016-04-14 21328   desktop      384         
##  8 1061284 1000033 2016-04-14 2016-04-16 27485   desktop      384         
##  9 1061285 1000033 2016-04-16 2016-04-19 38677   desktop      384         
## 10   81631 1000045 2016-06-18 2016-06-20 64876   desktop      2790        
## # ... with 1,166,825 more rows, and 8 more variables: booker_country <chr>,
## #   hotel_country <chr>, utrip_id <chr>, stay_days <drtn>, joint <chr>,
## #   checkin_month <dbl>, checkin_year <dbl>, city_step <int>
…
train %>% select(checkin) %>% arrange(desc(checkin)) %>% head(3)

## # A tibble: 3 x 1
##   checkin   
##   <date>    
## 1 2017-02-27
## 2 2017-02-27
## 3 2017-02-27

train %>% group_by(user_id) %>% summarise(coun = n()) %>% arrange(desc(coun))

## # A tibble: 200,153 x 2
##    user_id  coun
##    <chr>   <int>
##  1 2209265   172
##  2 870848    137
##  3 3635431   123
##  4 362194    102
##  5 5819402    94
##  6 1570474    79
##  7 4707321    76
##  8 433188     70
##  9 5054789    68
## 10 4615970    63
## # ... with 200,143 more rows

2

ID

utrip

utrip id 

train %>% group_by(user_id,utrip_id) %>% summarise(coun = n()) %>% arrange(desc(coun))

## `summarise()` has grouped output by 'user_id'. You can override using the `.groups` argument.

## # A tibble: 217,686 x 3
## # Groups:   user_id [200,153]
##    user_id utrip_id    coun
##    <chr>   <chr>      <int>
##  1 3635431 3635431_3     48
##  2 2209265 2209265_10    45
##  3 433188  433188_8      44
##  4 2209265 2209265_15    41
##  5 5231140 5231140_3     41
##  6 2899950 2899950_1     39
##  7 3422831 3422831_1     39
##  8 3878245 3878245_1     39
##  9 1380626 1380626_3     36
## 10 3611727 3611727_3     36
## # ... with 217,676 more rows

1

train %>% group_by(user_id,utrip_id, hotel_country) %>% summarise(coun = n()) %>% arrange(desc(coun))

## `summarise()` has grouped output by 'user_id', 'utrip_id'. You can override using the `.groups` argument.

## # A tibble: 307,828 x 4
## # Groups:   user_id, utrip_id [217,686]
##    user_id utrip_id   hotel_country         coun
##    <chr>   <chr>      <chr>                <int>
##  1 3635431 3635431_3  Gondal                  48
##  2 2209265 2209265_10 The Devilfire Empire    45
##  3 433188  433188_8   Elbonia                 44
##  4 3422831 3422831_1  Kasnia                  39
##  5 2899950 2899950_1  Patusan                 38
##  6 3611727 3611727_3  Oceania                 36
##  7 362194  362194_12  Bahavia                 36
##  8 5231140 5231140_3  Glubbdubdrib            35
##  9 1481929 1481929_2  Kumbolaland             34
## 10 1765701 1765701_3  Cobra Island            33
## # ... with 307,818 more rows

train %>% group_by(user_id,utrip_id, hotel_country) %>% summarise(coun = n()) %>% arrange(user_id,desc(coun))

## `summarise()` has grouped output by 'user_id', 'utrip_id'. You can override using the `.groups` argument.

## # A tibble: 307,828 x 4
## # Groups:   user_id, utrip_id [217,686]
##    user_id utrip_id  hotel_country  coun
##    <chr>   <chr>     <chr>         <int>
##  1 1000027 1000027_1 Gondal            4
##  2 1000033 1000033_1 Cobra Island      5
##  3 1000045 1000045_1 Fook Island       3
##  4 1000045 1000045_1 Carpathia         2
##  5 1000045 1000045_1 Gondal            2
##  6 100008  100008_1  Kamistan          5
##  7 1000083 1000083_1 Osterlich         3
##  8 1000083 1000083_1 Gondal            1
##  9 1000097 1000097_1 Fook Island      10
## 10 1000136 1000136_1 Fook Island       5
## # ... with 307,818 more rows

train %>% group_by(user_id,utrip_id) %>% summarise(coun = n()) %>% group_by(user_id) %>% summarise(coun = n()) %>% arrange(desc(coun))

## `summarise()` has grouped output by 'user_id'. You can override using the `.groups` argument.

## # A tibble: 200,153 x 2
##    user_id  coun
##    <chr>   <int>
##  1 870848     20
##  2 5054789    17
##  3 3760195    15
##  4 341743     13
##  5 384105     11
##  6 4349469    11
##  7 5819402    11
##  8 2209265    10
##  9 3726000    10
## 10 1068616     9
## # ... with 200,143 more rows

201512-201702

10

train

## # A tibble: 1,166,835 x 15
##         X1 user_id checkin    checkout   city_id device_class affiliate_id
##      <dbl> <chr>   <date>     <date>     <chr>   <chr>        <chr>       
##  1  542546 1000027 2016-08-13 2016-08-14 8183    desktop      7168        
##  2  542547 1000027 2016-08-14 2016-08-16 15626   desktop      7168        
##  3  542548 1000027 2016-08-16 2016-08-18 60902   desktop      7168        
##  4  542549 1000027 2016-08-18 2016-08-21 30628   desktop      253         
##  5 1061281 1000033 2016-04-09 2016-04-11 38677   mobile       359         
##  6 1061282 1000033 2016-04-11 2016-04-12 52089   desktop      384         
##  7 1061283 1000033 2016-04-12 2016-04-14 21328   desktop      384         
##  8 1061284 1000033 2016-04-14 2016-04-16 27485   desktop      384         
##  9 1061285 1000033 2016-04-16 2016-04-19 38677   desktop      384         
## 10   81631 1000045 2016-06-18 2016-06-20 64876   desktop      2790        
## # ... with 1,166,825 more rows, and 8 more variables: booker_country <chr>,
## #   hotel_country <chr>, utrip_id <chr>, stay_days <drtn>, joint <chr>,
## #   checkin_month <dbl>, checkin_year <dbl>, city_step <int>

city id 

train %>% count(city_id) %>% arrange(desc(n))

## # A tibble: 39,901 x 2
##    city_id     n
##    <chr>   <int>
##  1 47499   11242
##  2 23921   10511
##  3 36063    9559
##  4 17013    9011
##  5 29319    8179
##  6 64876    7784
##  7 55128    7763
##  8 17127    6893
##  9 2416     6641
## 10 66648    6625
## # ... with 39,891 more rows

test %>% filter(user_id %in% unique(train$user_id)) %>% count(user_id) %>% arrange(desc(n))

## # A tibble: 9,496 x 2
##    user_id     n
##    <chr>   <int>
##  1 4152137    60
##  2 2667263    46
##  3 3162447    44
##  4 1942330    43
##  5 870848     40
##  6 2970445    38
##  7 1482089    34
##  8 158140     34
##  9 2253433    32
## 10 1125218    31
## # ... with 9,486 more rows

train

train %>% 
  group_by(user_id,city_id) %>% 
  summarise(coun = n()) %>% 
  group_by(user_id) %>% 
  summarise(visit_city_num = n(), sums_vis_city= sum(coun)) %>% 
  arrange(desc(visit_city_num),user_id)

## `summarise()` has grouped output by 'user_id'. You can override using the `.groups` argument.

## # A tibble: 200,153 x 3
##    user_id visit_city_num sums_vis_city
##    <chr>            <int>         <int>
##  1 1570474             72            79
##  2 4707321             67            76
##  3 5054789             61            68
##  4 5313305             61            63
##  5 1380626             54            60
##  6 5906175             52            60
##  7 5771132             51            58
##  8 6004567             50            59
##  9 2584362             47            49
## 10 341743              47            54
## # ... with 200,143 more rows

city idcity

train %>% count(user_id,utrip_id) %>% arrange(reorder(user_id,desc(n)),desc(n))

## # A tibble: 217,686 x 3
##    user_id utrip_id      n
##    <chr>   <chr>     <int>
##  1 5231140 5231140_3    41
##  2 2899950 2899950_1    39
##  3 3422831 3422831_1    39
##  4 3878245 3878245_1    39
##  5 6195383 6195383_1    35
##  6 1481929 1481929_2    34
##  7 1765701 1765701_3    33
##  8 3762853 3762853_1    33
##  9 136039  136039_2     32
## 10 1380626 1380626_3    36
## # ... with 217,676 more rows
…
length(unique(train$city_id))

## [1] 39901

length(unique(train$hotel_country))

## [1] 195

train %>% count(hotel_country) %>% filter(n > 20)

## # A tibble: 138 x 2
##    hotel_country                      n
##    <chr>                          <int>
##  1 Absurdistan                       74
##  2 Aldorria                         409
##  3 Aldovia                        12887
##  4 Altis and Stratis, Republic of   968
##  5 Alvonia                        34446
##  6 Angrezi Raj                       25
##  7 Aslerfan                        3254
##  8 Atlantis                        4265
##  9 Axphain                        28719
## 10 Bacteria                         451
## # ... with 128 more rows
…
## `summarise()` has grouped output by 'hotel_country'. You can override using the `.groups` argument.

train %>% 
  filter(hotel_country %in% unique(comp_month$hotel_country)) %>%
  group_by(hotel_country,checkin_month) %>% 
  summarise(coun = n()) %>% 
  complete(hotel_country,checkin_month) %>%
  arrange(hotel_country,checkin_month)

## `summarise()` has grouped output by 'hotel_country'. You can override using the `.groups` argument.

## # A tibble: 1,248 x 3
## # Groups:   hotel_country [104]
##    hotel_country checkin_month  coun
##    <chr>                 <dbl> <int>
##  1 Absurdistan               1     1
##  2 Absurdistan               2     1
##  3 Absurdistan               3     3
##  4 Absurdistan               4     1
##  5 Absurdistan               5     5
##  6 Absurdistan               6     8
##  7 Absurdistan               7    19
##  8 Absurdistan               8    17
##  9 Absurdistan               9     5
## 10 Absurdistan              10     5
## # ... with 1,238 more rows
…
## `summarise()` has grouped output by 'comb'. You can override using the `.groups` argument.

train %>% 
  mutate(comb = str_c(city_id,hotel_country)) %>%
  filter(comb %in% unique(comp_month_city$comb)) %>%
  group_by(comb,checkin_month) %>% 
  summarise(coun = n()) %>% 
  #complete(comb,checkin_month) %>%
  arrange(comb,checkin_month)

## `summarise()` has grouped output by 'comb'. You can override using the `.groups` argument.

## # A tibble: 19,944 x 3
## # Groups:   comb [1,662]
##    comb              checkin_month  coun
##    <chr>                     <dbl> <int>
##  1 10016Cobra Island             1     1
##  2 10016Cobra Island             2     1
##  3 10016Cobra Island             3     1
##  4 10016Cobra Island             4     2
##  5 10016Cobra Island             5     6
##  6 10016Cobra Island             6     4
##  7 10016Cobra Island             7     6
##  8 10016Cobra Island             8     6
##  9 10016Cobra Island             9     4
## 10 10016Cobra Island            10     4
## # ... with 19,934 more rows
…
ggsave(str_c("city//",unique(comp_month_city$comb)[i],".png"))

}

}

train %>% 
  group_by(hotel_country,checkin_month) %>% 
  summarise(coun = n()) %>% 
  arrange(hotel_country,checkin_month) %>% 
  select(hotel_country) %>% unique()

## `summarise()` has grouped output by 'hotel_country'. You can override using the `.groups` argument.

## # A tibble: 195 x 1
## # Groups:   hotel_country [195]
##    hotel_country                 
##    <chr>                         
##  1 Absurdistan                   
##  2 Aldorria                      
##  3 Aldovia                       
##  4 Almaigne                      
##  5 Altis and Stratis, Republic of
##  6 Alvonia                       
##  7 Angrezi Raj                   
##  8 Aslerfan                      
##  9 Atlantis                      
## 10 Axphain                       
## # ... with 185 more rows

utrip id

train %>% count(hotel_country) %>% arrange(n)

## # A tibble: 195 x 2
##    hotel_country     n
##    <chr>         <int>
##  1 Buenaventura      1
##  2 Guilder           1
##  3 Maltovia          1
##  4 Medici            1
##  5 New Germany       1
##  6 Norteguay         1
##  7 Nuevo Rico        1
##  8 Rhelasia          1
##  9 Sardovia          1
## 10 Utopia            1
## # ... with 185 more rows
…
train %>% head(50) %>% select(city_id) %>% unique()

## # A tibble: 46 x 1
##    city_id
##    <chr>  
##  1 8183   
##  2 15626  
##  3 60902  
##  4 30628  
##  5 38677  
##  6 52089  
##  7 21328  
##  8 27485  
##  9 64876  
## 10 55128  
## # ... with 36 more rows
…
    train %>% 
  select(utrip_id,city_id) %>%
  group_by(utrip_id,city_id) %>% 
  summarise(vv = n(),.groups = 'drop')%>%
  complete(utrip_id,city_id,fill = list(vv=0))%>%
  pivot_wider(names_from=city_id, values_from = vv)
)

}

just_1 <- train %>% group_by(utrip_id) %>% summarise(coun=n()) %>% filter(coun == 1) %>% select(utrip_id) %>% unique()

train %>% filter(utrip_id %in% just_1$utrip_id) %>% count(hotel_country)

## # A tibble: 40 x 2
##    hotel_country     n
##  * <chr>         <int>
##  1 Aldovia           2
##  2 Alvonia           2
##  3 Atlantis          1
##  4 Axphain           6
##  5 Bandaria          1
##  6 Bartovia          2
##  7 Borginia          4
##  8 Bozatta           6
##  9 Carjackistan      2
## 10 Carpathia         3
## # ... with 30 more rows

train %>% filter(utrip_id %in% just_1$utrip_id) %>% count(booker_country)

## # A tibble: 4 x 2
##   booker_country           n
## * <chr>                <int>
## 1 Elbonia                 41
## 2 Gondal                  43
## 3 Tcherkistan              2
## 4 The Devilfire Empire    27

train %>% filter(utrip_id %in% just_1$utrip_id) %>% count(city_id)

## # A tibble: 106 x 2
##    city_id     n
##  * <chr>   <int>
##  1 10497       1
##  2 10994       1
##  3 11652       1
##  4 12426       1
##  5 13931       1
##  6 14646       1
##  7 15535       1
##  8 16311       1
##  9 16521       1
## 10 17127       2
## # ... with 96 more rows

train %>% filter(utrip_id %in% just_1$utrip_id) %>% count(user_id)

## # A tibble: 113 x 2
##    user_id     n
##  * <chr>   <int>
##  1 1032416     1
##  2 1109803     1
##  3 1123848     1
##  4 1144248     1
##  5 1204872     1
##  6 1219694     1
##  7 1328507     1
##  8 1329518     1
##  9 1375406     1
## 10 1491897     1
## # ... with 103 more rows

train %>% filter(utrip_id %in% just_1$utrip_id) %>% count(device_class)

## # A tibble: 3 x 2
##   device_class     n
## * <chr>        <int>
## 1 desktop         71
## 2 mobile          35
## 3 tablet           7

train %>% filter(utrip_id %in% just_1$utrip_id) %>% count(affiliate_id)

## # A tibble: 57 x 2
##    affiliate_id     n
##  * <chr>        <int>
##  1 10001            1
##  2 10029            1
##  3 10332            2
##  4 10573            1
##  5 1107             1
##  6 1218             1
##  7 1457             1
##  8 1601             1
##  9 1841             1
## 10 2323             1
## # ... with 47 more rows
…
city

just_1_city <- train %>% group_by(city_id) %>% summarise(coun=n()) %>% filter(coun == 1)

train %>% filter(city_id %in% just_1_city$city_id) %>% count(city_id)

## # A tibble: 12,045 x 2
##    city_id     n
##  * <chr>   <int>
##  1 10001       1
##  2 10009       1
##  3 10014       1
##  4 10018       1
##  5 10035       1
##  6 10038       1
##  7 10040       1
##  8 10051       1
##  9 10052       1
## 10 10054       1
## # ... with 12,035 more rows

train %>% filter(city_id %in% just_1_city$city_id) %>% count(booker_country)

## # A tibble: 5 x 2
##   booker_country           n
## * <chr>                <int>
## 1 Bartovia               715
## 2 Elbonia               4042
## 3 Gondal                5937
## 4 Tcherkistan            295
## 5 The Devilfire Empire  1056

train %>% filter(city_id %in% just_1_city$city_id) %>% count(hotel_country)

## # A tibble: 163 x 2
##    hotel_country                      n
##  * <chr>                          <int>
##  1 Absurdistan                        7
##  2 Aldorria                          10
##  3 Aldovia                           84
##  4 Altis and Stratis, Republic of     4
##  5 Alvonia                          196
##  6 Aslerfan                          50
##  7 Atlantis                         106
##  8 Axphain                          211
##  9 Bacteria                          13
## 10 Bahari                             6
## # ... with 153 more rows

train %>% filter(city_id %in% just_1_city$city_id) %>% count(user_id)

## # A tibble: 10,222 x 2
##    user_id     n
##  * <chr>   <int>
##  1 1001074     1
##  2 1001636     1
##  3 1001695     1
##  4 1001833     1
##  5 1001838     1
##  6 1002170     1
##  7 100278      1
##  8 1003777     1
##  9 100397      1
## 10 100413      1
## # ... with 10,212 more rows

train %>% filter(city_id %in% just_1_city$city_id) %>% count(device_class)

## # A tibble: 3 x 2
##   device_class     n
## * <chr>        <int>
## 1 desktop       8528
## 2 mobile        2584
## 3 tablet         933

train %>% filter(city_id %in% just_1_city$city_id) %>% count(affiliate_id)

## # A tibble: 581 x 2
##    affiliate_id     n
##  * <chr>        <int>
##  1 100              1
##  2 10001           12
##  3 10029            3
##  4 10063            2
##  5 10069            6
##  6 10075            1
##  7 10099            2
##  8 10100           16
##  9 10101            1
## 10 10105            1
## # ... with 571 more rows
…
train %>% 
  group_by(utrip_id) %>% 
  summarise(sort_combin = str_c(sort(city_id), collapse = '-'))

## # A tibble: 217,686 x 2
##    utrip_id  sort_combin                                             
##  * <chr>     <chr>                                                   
##  1 1000027_1 15626-30628-60902-8183                                  
##  2 1000033_1 21328-27485-38677-38677-52089                           
##  3 1000045_1 31817-36063-36170-55128-58178-64876-9608                
##  4 100008_1  11306-12096-65690-6761-6779                             
##  5 1000083_1 14705-35160-36063-55990                                 
##  6 1000097_1 17127-21033-31088-40521-42503-55128-61187-6306-6788-6788
##  7 1000136_1 20345-32627-33540-42482-62541                           
##  8 1000145_1 17764-27112-35850-47499-56651                           
##  9 100018_1  17830-22065-2748-46854-57619-57658-5797                 
## 10 1000208_1 1910-51999-56872-60143-9278                             
## # ... with 217,676 more rows

train %>% 
  group_by(utrip_id) %>% 
  summarise(sort_combin = str_c(sort(city_id), collapse = '-'))%>%
  group_by(sort_combin) %>%
  summarise(count_trip_plan = n()) %>%
  arrange(desc(count_trip_plan))

## # A tibble: 190,546 x 2
##    sort_combin                   count_trip_plan
##    <chr>                                   <int>
##  1 51259-51259-51259-51259                   379
##  2 17127-55128-64876-9608                    291
##  3 18417-23714-30520-66648                   227
##  4 18417-30520-66648-66648                   187
##  5 17013-4932-60222-9680                     184
##  6 36063-36063-36063-36063                   166
##  7 17013-17013-4932-60222                    159
##  8 2416-2416-28479-47193                     145
##  9 52815-52815-52815-52815                   136
## 10 51259-51259-51259-51259-51259             134
## # ... with 190,536 more rows
…
